…
``` r
dis=distinct(nyc_transit,line,station_name,.keep_all=TRUE)
nrow(dis)
```

    ## [1] 465

``` r
dis %>%
  filter(ada=='TRUE')
```

    ## # A tibble: 84 × 19
    ##    line        stati…¹ stati…² stati…³ route1 route2 route3 route4 route5 route6
    ##    <chr>       <chr>     <dbl>   <dbl> <chr>  <chr>  <chr>  <chr>  <chr>  <chr> 
    ##  1 4 Avenue    Atlant…    40.7   -74.0 B      Q      D      N      R      2     
    ##  2 4 Avenue    DeKalb…    40.7   -74.0 B      Q      R      <NA>   <NA>   <NA>  
    ##  3 4 Avenue    Pacifi…    40.7   -74.0 B      Q      D      N      R      2     
    ##  4 42nd St Sh… Grand …    40.8   -74.0 GS     4      5      6      7      <NA>  
    ##  5 6 Avenue    34th St    40.7   -74.0 B      D      F      M      N      Q     
    ##  6 6 Avenue    47-50t…    40.8   -74.0 B      D      F      M      <NA>   <NA>  
    ##  7 6 Avenue    Church…    40.6   -74.0 F      <NA>   <NA>   <NA>   <NA>   <NA>  
    ##  8 63rd Street 21st St    40.8   -73.9 F      <NA>   <NA>   <NA>   <NA>   <NA>  
    ##  9 63rd Street Lexing…    40.8   -74.0 F      <NA>   <NA>   <NA>   <NA>   <NA>  
    ## 10 63rd Street Roosev…    40.8   -74.0 F      <NA>   <NA>   <NA>   <NA>   <NA>  
    ## # … with 74 more rows, 9 more variables: route7 <chr>, route8 <dbl>,
    ## #   route9 <dbl>, route10 <dbl>, route11 <dbl>, entry <chr>, vending <chr>,
    ## #   entrance_type <chr>, ada <lgl>, and abbreviated variable names
    ## #   ¹​station_name, ²​station_latitude, ³​station_longitude
…
